<svg width="10" height="9" viewBox="0 0 10 9" fill="none" xmlns="http://www.w3.org/2000/svg">
<path d="M0.113077 4.6899C0.0376923 4.6119 0 4.4949 0 4.4169C0 4.3389 0.0376923 4.2219 0.113077 4.1439L0.640769 3.5979C0.791538 3.4419 1.01769 3.4419 1.16846 3.5979L1.20615 3.6369L3.27923 5.9379C3.35462 6.0159 3.46769 6.0159 3.54308 5.9379L8.59385 0.516902H8.63154C8.78231 0.360902 9.00846 0.360902 9.15923 0.516902L9.68692 1.0629C9.83769 1.2189 9.83769 1.4529 9.68692 1.6089L3.65615 8.0829C3.58077 8.1609 3.50538 8.1999 3.39231 8.1999C3.27923 8.1999 3.20385 8.1609 3.12846 8.0829L0.188462 4.8069L0.113077 4.6899Z" fill="white"/>
</svg>
